// Jest Snapshot v1, https://goo.gl/fbAQLP

exports[`InviteModal -> show modal state component should exists and maps snapshot 1`] = `
ShallowWrapper {
  "length": 1,
  Symbol(enzyme.__root__): [Circular],
  Symbol(enzyme.__unrendered__): <InviteModal
    isRequestInProgress={false}
    onCancel={[Function]}
    registerService={[Function]}
    registrationError=""
    show={true}
/>,
  Symbol(enzyme.__renderer__): Object {
    "batchedUpdates": [Function],
    "getNode": [Function],
    "render": [Function],
    "simulateEvent": [Function],
    "unmount": [Function],
  },
  Symbol(enzyme.__node__): Object {
    "instance": null,
    "key": undefined,
    "nodeType": "class",
    "props": Object {
      "autoFocus": true,
      "backdrop": true,
      "backdropTransition": Object {
        "mountOnEnter": true,
        "timeout": 150,
      },
      "centered": true,
      "children": Array [
        <ModalHeader
          className="modal-header"
          closeAriaLabel="Close"
          tag="h5"
          wrapTag="div"
>
          Request an invite
</ModalHeader>,
        <ModalBody
          tag="div"
>
          <Form
                    tag="form"
          >
                    <RenderField
                              error={undefined}
                              invalid={undefined}
                              label="Full Name"
                              onBlur={[Function]}
                              onChange={[Function]}
                    />
                    <RenderField
                              error={undefined}
                              invalid={undefined}
                              label="Email"
                              onBlur={[Function]}
                              onChange={[Function]}
                    />
                    <RenderField
                              error={undefined}
                              invalid={undefined}
                              label="Confirm Email"
                              onBlur={[Function]}
                              onChange={[Function]}
                    />
          </Form>
</ModalBody>,
        <ModalFooter
          className="d-flex flex-column"
          tag="div"
>
          <Button
                    block={true}
                    color="primary"
                    disabled={false}
                    id="sendrequest"
                    onClick={[Function]}
                    size="lg"
                    tag="button"
          >
                    Send
          </Button>
          <Button
                    color="link"
                    id="cancelrequest"
                    onClick={[Function]}
                    tag="button"
          >
                    cancel
          </Button>
          <p
                    className="pt-1 h6 font-italic"
                    id="requestStatusText"
          />
</ModalFooter>,
      ],
      "className": undefined,
      "fade": true,
      "isOpen": true,
      "keyboard": true,
      "modalTransition": Object {
        "timeout": 300,
      },
      "onClosed": [Function],
      "onOpened": [Function],
      "role": "dialog",
      "size": "md",
      "toggle": undefined,
      "zIndex": 1050,
    },
    "ref": null,
    "rendered": Array [
      Object {
        "instance": null,
        "key": undefined,
        "nodeType": "function",
        "props": Object {
          "children": "Request an invite",
          "className": "modal-header",
          "closeAriaLabel": "Close",
          "tag": "h5",
          "wrapTag": "div",
        },
        "ref": null,
        "rendered": "Request an invite",
        "type": [Function],
      },
      Object {
        "instance": null,
        "key": undefined,
        "nodeType": "function",
        "props": Object {
          "children": <Form
            tag="form"
>
            <RenderField
                        error={undefined}
                        invalid={undefined}
                        label="Full Name"
                        onBlur={[Function]}
                        onChange={[Function]}
            />
            <RenderField
                        error={undefined}
                        invalid={undefined}
                        label="Email"
                        onBlur={[Function]}
                        onChange={[Function]}
            />
            <RenderField
                        error={undefined}
                        invalid={undefined}
                        label="Confirm Email"
                        onBlur={[Function]}
                        onChange={[Function]}
            />
</Form>,
          "tag": "div",
        },
        "ref": null,
        "rendered": Object {
          "instance": null,
          "key": undefined,
          "nodeType": "function",
          "props": Object {
            "children": Array [
              <RenderField
                error={undefined}
                invalid={undefined}
                label="Full Name"
                onBlur={[Function]}
                onChange={[Function]}
/>,
              <RenderField
                error={undefined}
                invalid={undefined}
                label="Email"
                onBlur={[Function]}
                onChange={[Function]}
/>,
              <RenderField
                error={undefined}
                invalid={undefined}
                label="Confirm Email"
                onBlur={[Function]}
                onChange={[Function]}
/>,
            ],
            "tag": "form",
          },
          "ref": null,
          "rendered": Array [
            Object {
              "instance": null,
              "key": undefined,
              "nodeType": "function",
              "props": Object {
                "error": undefined,
                "invalid": undefined,
                "label": "Full Name",
                "onBlur": [Function],
                "onChange": [Function],
              },
              "ref": null,
              "rendered": null,
              "type": [Function],
            },
            Object {
              "instance": null,
              "key": undefined,
              "nodeType": "function",
              "props": Object {
                "error": undefined,
                "invalid": undefined,
                "label": "Email",
                "onBlur": [Function],
                "onChange": [Function],
              },
              "ref": null,
              "rendered": null,
              "type": [Function],
            },
            Object {
              "instance": null,
              "key": undefined,
              "nodeType": "function",
              "props": Object {
                "error": undefined,
                "invalid": undefined,
                "label": "Confirm Email",
                "onBlur": [Function],
                "onChange": [Function],
              },
              "ref": null,
              "rendered": null,
              "type": [Function],
            },
          ],
          "type": [Function],
        },
        "type": [Function],
      },
      Object {
        "instance": null,
        "key": undefined,
        "nodeType": "function",
        "props": Object {
          "children": Array [
            <Button
              block={true}
              color="primary"
              disabled={false}
              id="sendrequest"
              onClick={[Function]}
              size="lg"
              tag="button"
>
              Send
</Button>,
            <Button
              color="link"
              id="cancelrequest"
              onClick={[Function]}
              tag="button"
>
              cancel
</Button>,
            <p
              className="pt-1 h6 font-italic"
              id="requestStatusText"
/>,
          ],
          "className": "d-flex flex-column",
          "tag": "div",
        },
        "ref": null,
        "rendered": Array [
          Object {
            "instance": null,
            "key": undefined,
            "nodeType": "class",
            "props": Object {
              "block": true,
              "children": "Send",
              "color": "primary",
              "disabled": false,
              "id": "sendrequest",
              "onClick": [Function],
              "size": "lg",
              "tag": "button",
            },
            "ref": null,
            "rendered": "Send",
            "type": [Function],
          },
          Object {
            "instance": null,
            "key": undefined,
            "nodeType": "class",
            "props": Object {
              "children": "cancel",
              "color": "link",
              "id": "cancelrequest",
              "onClick": [Function],
              "tag": "button",
            },
            "ref": null,
            "rendered": "cancel",
            "type": [Function],
          },
          Object {
            "instance": null,
            "key": undefined,
            "nodeType": "host",
            "props": Object {
              "children": "",
              "className": "pt-1 h6 font-italic",
              "id": "requestStatusText",
            },
            "ref": null,
            "rendered": "",
            "type": "p",
          },
        ],
        "type": [Function],
      },
    ],
    "type": [Function],
  },
  Symbol(enzyme.__nodes__): Array [
    Object {
      "instance": null,
      "key": undefined,
      "nodeType": "class",
      "props": Object {
        "autoFocus": true,
        "backdrop": true,
        "backdropTransition": Object {
          "mountOnEnter": true,
          "timeout": 150,
        },
        "centered": true,
        "children": Array [
          <ModalHeader
            className="modal-header"
            closeAriaLabel="Close"
            tag="h5"
            wrapTag="div"
>
            Request an invite
</ModalHeader>,
          <ModalBody
            tag="div"
>
            <Form
                        tag="form"
            >
                        <RenderField
                                    error={undefined}
                                    invalid={undefined}
                                    label="Full Name"
                                    onBlur={[Function]}
                                    onChange={[Function]}
                        />
                        <RenderField
                                    error={undefined}
                                    invalid={undefined}
                                    label="Email"
                                    onBlur={[Function]}
                                    onChange={[Function]}
                        />
                        <RenderField
                                    error={undefined}
                                    invalid={undefined}
                                    label="Confirm Email"
                                    onBlur={[Function]}
                                    onChange={[Function]}
                        />
            </Form>
</ModalBody>,
          <ModalFooter
            className="d-flex flex-column"
            tag="div"
>
            <Button
                        block={true}
                        color="primary"
                        disabled={false}
                        id="sendrequest"
                        onClick={[Function]}
                        size="lg"
                        tag="button"
            >
                        Send
            </Button>
            <Button
                        color="link"
                        id="cancelrequest"
                        onClick={[Function]}
                        tag="button"
            >
                        cancel
            </Button>
            <p
                        className="pt-1 h6 font-italic"
                        id="requestStatusText"
            />
</ModalFooter>,
        ],
        "className": undefined,
        "fade": true,
        "isOpen": true,
        "keyboard": true,
        "modalTransition": Object {
          "timeout": 300,
        },
        "onClosed": [Function],
        "onOpened": [Function],
        "role": "dialog",
        "size": "md",
        "toggle": undefined,
        "zIndex": 1050,
      },
      "ref": null,
      "rendered": Array [
        Object {
          "instance": null,
          "key": undefined,
          "nodeType": "function",
          "props": Object {
            "children": "Request an invite",
            "className": "modal-header",
            "closeAriaLabel": "Close",
            "tag": "h5",
            "wrapTag": "div",
          },
          "ref": null,
          "rendered": "Request an invite",
          "type": [Function],
        },
        Object {
          "instance": null,
          "key": undefined,
          "nodeType": "function",
          "props": Object {
            "children": <Form
              tag="form"
>
              <RenderField
                            error={undefined}
                            invalid={undefined}
                            label="Full Name"
                            onBlur={[Function]}
                            onChange={[Function]}
              />
              <RenderField
                            error={undefined}
                            invalid={undefined}
                            label="Email"
                            onBlur={[Function]}
                            onChange={[Function]}
              />
              <RenderField
                            error={undefined}
                            invalid={undefined}
                            label="Confirm Email"
                            onBlur={[Function]}
                            onChange={[Function]}
              />
</Form>,
            "tag": "div",
          },
          "ref": null,
          "rendered": Object {
            "instance": null,
            "key": undefined,
            "nodeType": "function",
            "props": Object {
              "children": Array [
                <RenderField
                  error={undefined}
                  invalid={undefined}
                  label="Full Name"
                  onBlur={[Function]}
                  onChange={[Function]}
/>,
                <RenderField
                  error={undefined}
                  invalid={undefined}
                  label="Email"
                  onBlur={[Function]}
                  onChange={[Function]}
/>,
                <RenderField
                  error={undefined}
                  invalid={undefined}
                  label="Confirm Email"
                  onBlur={[Function]}
                  onChange={[Function]}
/>,
              ],
              "tag": "form",
            },
            "ref": null,
            "rendered": Array [
              Object {
                "instance": null,
                "key": undefined,
                "nodeType": "function",
                "props": Object {
                  "error": undefined,
                  "invalid": undefined,
                  "label": "Full Name",
                  "onBlur": [Function],
                  "onChange": [Function],
                },
                "ref": null,
                "rendered": null,
                "type": [Function],
              },
              Object {
                "instance": null,
                "key": undefined,
                "nodeType": "function",
                "props": Object {
                  "error": undefined,
                  "invalid": undefined,
                  "label": "Email",
                  "onBlur": [Function],
                  "onChange": [Function],
                },
                "ref": null,
                "rendered": null,
                "type": [Function],
              },
              Object {
                "instance": null,
                "key": undefined,
                "nodeType": "function",
                "props": Object {
                  "error": undefined,
                  "invalid": undefined,
                  "label": "Confirm Email",
                  "onBlur": [Function],
                  "onChange": [Function],
                },
                "ref": null,
                "rendered": null,
                "type": [Function],
              },
            ],
            "type": [Function],
          },
          "type": [Function],
        },
        Object {
          "instance": null,
          "key": undefined,
          "nodeType": "function",
          "props": Object {
            "children": Array [
              <Button
                block={true}
                color="primary"
                disabled={false}
                id="sendrequest"
                onClick={[Function]}
                size="lg"
                tag="button"
>
                Send
</Button>,
              <Button
                color="link"
                id="cancelrequest"
                onClick={[Function]}
                tag="button"
>
                cancel
</Button>,
              <p
                className="pt-1 h6 font-italic"
                id="requestStatusText"
/>,
            ],
            "className": "d-flex flex-column",
            "tag": "div",
          },
          "ref": null,
          "rendered": Array [
            Object {
              "instance": null,
              "key": undefined,
              "nodeType": "class",
              "props": Object {
                "block": true,
                "children": "Send",
                "color": "primary",
                "disabled": false,
                "id": "sendrequest",
                "onClick": [Function],
                "size": "lg",
                "tag": "button",
              },
              "ref": null,
              "rendered": "Send",
              "type": [Function],
            },
            Object {
              "instance": null,
              "key": undefined,
              "nodeType": "class",
              "props": Object {
                "children": "cancel",
                "color": "link",
                "id": "cancelrequest",
                "onClick": [Function],
                "tag": "button",
              },
              "ref": null,
              "rendered": "cancel",
              "type": [Function],
            },
            Object {
              "instance": null,
              "key": undefined,
              "nodeType": "host",
              "props": Object {
                "children": "",
                "className": "pt-1 h6 font-italic",
                "id": "requestStatusText",
              },
              "ref": null,
              "rendered": "",
              "type": "p",
            },
          ],
          "type": [Function],
        },
      ],
      "type": [Function],
    },
  ],
  Symbol(enzyme.__options__): Object {
    "adapter": ReactSixteenAdapter {
      "options": Object {
        "enableComponentDidUpdateOnSetState": true,
      },
    },
  },
}
`;

exports[`InviteModal on default state component should exists and maps snapshot 1`] = `
ShallowWrapper {
  "length": 1,
  Symbol(enzyme.__root__): [Circular],
  Symbol(enzyme.__unrendered__): <InviteModal
    isRequestInProgress={false}
    onCancel={[Function]}
    registerService={[Function]}
    registrationError=""
    show={false}
/>,
  Symbol(enzyme.__renderer__): Object {
    "batchedUpdates": [Function],
    "getNode": [Function],
    "render": [Function],
    "simulateEvent": [Function],
    "unmount": [Function],
  },
  Symbol(enzyme.__node__): Object {
    "instance": null,
    "key": undefined,
    "nodeType": "class",
    "props": Object {
      "autoFocus": true,
      "backdrop": true,
      "backdropTransition": Object {
        "mountOnEnter": true,
        "timeout": 150,
      },
      "centered": true,
      "children": Array [
        <ModalHeader
          className="modal-header"
          closeAriaLabel="Close"
          tag="h5"
          wrapTag="div"
>
          Request an invite
</ModalHeader>,
        <ModalBody
          tag="div"
>
          <Form
                    tag="form"
          >
                    <RenderField
                              error={undefined}
                              invalid={undefined}
                              label="Full Name"
                              onBlur={[Function]}
                              onChange={[Function]}
                    />
                    <RenderField
                              error={undefined}
                              invalid={undefined}
                              label="Email"
                              onBlur={[Function]}
                              onChange={[Function]}
                    />
                    <RenderField
                              error={undefined}
                              invalid={undefined}
                              label="Confirm Email"
                              onBlur={[Function]}
                              onChange={[Function]}
                    />
          </Form>
</ModalBody>,
        <ModalFooter
          className="d-flex flex-column"
          tag="div"
>
          <Button
                    block={true}
                    color="primary"
                    disabled={false}
                    id="sendrequest"
                    onClick={[Function]}
                    size="lg"
                    tag="button"
          >
                    Send
          </Button>
          <Button
                    color="link"
                    id="cancelrequest"
                    onClick={[Function]}
                    tag="button"
          >
                    cancel
          </Button>
          <p
                    className="pt-1 h6 font-italic"
                    id="requestStatusText"
          />
</ModalFooter>,
      ],
      "className": undefined,
      "fade": true,
      "isOpen": false,
      "keyboard": true,
      "modalTransition": Object {
        "timeout": 300,
      },
      "onClosed": [Function],
      "onOpened": [Function],
      "role": "dialog",
      "size": "md",
      "toggle": undefined,
      "zIndex": 1050,
    },
    "ref": null,
    "rendered": Array [
      Object {
        "instance": null,
        "key": undefined,
        "nodeType": "function",
        "props": Object {
          "children": "Request an invite",
          "className": "modal-header",
          "closeAriaLabel": "Close",
          "tag": "h5",
          "wrapTag": "div",
        },
        "ref": null,
        "rendered": "Request an invite",
        "type": [Function],
      },
      Object {
        "instance": null,
        "key": undefined,
        "nodeType": "function",
        "props": Object {
          "children": <Form
            tag="form"
>
            <RenderField
                        error={undefined}
                        invalid={undefined}
                        label="Full Name"
                        onBlur={[Function]}
                        onChange={[Function]}
            />
            <RenderField
                        error={undefined}
                        invalid={undefined}
                        label="Email"
                        onBlur={[Function]}
                        onChange={[Function]}
            />
            <RenderField
                        error={undefined}
                        invalid={undefined}
                        label="Confirm Email"
                        onBlur={[Function]}
                        onChange={[Function]}
            />
</Form>,
          "tag": "div",
        },
        "ref": null,
        "rendered": Object {
          "instance": null,
          "key": undefined,
          "nodeType": "function",
          "props": Object {
            "children": Array [
              <RenderField
                error={undefined}
                invalid={undefined}
                label="Full Name"
                onBlur={[Function]}
                onChange={[Function]}
/>,
              <RenderField
                error={undefined}
                invalid={undefined}
                label="Email"
                onBlur={[Function]}
                onChange={[Function]}
/>,
              <RenderField
                error={undefined}
                invalid={undefined}
                label="Confirm Email"
                onBlur={[Function]}
                onChange={[Function]}
/>,
            ],
            "tag": "form",
          },
          "ref": null,
          "rendered": Array [
            Object {
              "instance": null,
              "key": undefined,
              "nodeType": "function",
              "props": Object {
                "error": undefined,
                "invalid": undefined,
                "label": "Full Name",
                "onBlur": [Function],
                "onChange": [Function],
              },
              "ref": null,
              "rendered": null,
              "type": [Function],
            },
            Object {
              "instance": null,
              "key": undefined,
              "nodeType": "function",
              "props": Object {
                "error": undefined,
                "invalid": undefined,
                "label": "Email",
                "onBlur": [Function],
                "onChange": [Function],
              },
              "ref": null,
              "rendered": null,
              "type": [Function],
            },
            Object {
              "instance": null,
              "key": undefined,
              "nodeType": "function",
              "props": Object {
                "error": undefined,
                "invalid": undefined,
                "label": "Confirm Email",
                "onBlur": [Function],
                "onChange": [Function],
              },
              "ref": null,
              "rendered": null,
              "type": [Function],
            },
          ],
          "type": [Function],
        },
        "type": [Function],
      },
      Object {
        "instance": null,
        "key": undefined,
        "nodeType": "function",
        "props": Object {
          "children": Array [
            <Button
              block={true}
              color="primary"
              disabled={false}
              id="sendrequest"
              onClick={[Function]}
              size="lg"
              tag="button"
>
              Send
</Button>,
            <Button
              color="link"
              id="cancelrequest"
              onClick={[Function]}
              tag="button"
>
              cancel
</Button>,
            <p
              className="pt-1 h6 font-italic"
              id="requestStatusText"
/>,
          ],
          "className": "d-flex flex-column",
          "tag": "div",
        },
        "ref": null,
        "rendered": Array [
          Object {
            "instance": null,
            "key": undefined,
            "nodeType": "class",
            "props": Object {
              "block": true,
              "children": "Send",
              "color": "primary",
              "disabled": false,
              "id": "sendrequest",
              "onClick": [Function],
              "size": "lg",
              "tag": "button",
            },
            "ref": null,
            "rendered": "Send",
            "type": [Function],
          },
          Object {
            "instance": null,
            "key": undefined,
            "nodeType": "class",
            "props": Object {
              "children": "cancel",
              "color": "link",
              "id": "cancelrequest",
              "onClick": [Function],
              "tag": "button",
            },
            "ref": null,
            "rendered": "cancel",
            "type": [Function],
          },
          Object {
            "instance": null,
            "key": undefined,
            "nodeType": "host",
            "props": Object {
              "children": "",
              "className": "pt-1 h6 font-italic",
              "id": "requestStatusText",
            },
            "ref": null,
            "rendered": "",
            "type": "p",
          },
        ],
        "type": [Function],
      },
    ],
    "type": [Function],
  },
  Symbol(enzyme.__nodes__): Array [
    Object {
      "instance": null,
      "key": undefined,
      "nodeType": "class",
      "props": Object {
        "autoFocus": true,
        "backdrop": true,
        "backdropTransition": Object {
          "mountOnEnter": true,
          "timeout": 150,
        },
        "centered": true,
        "children": Array [
          <ModalHeader
            className="modal-header"
            closeAriaLabel="Close"
            tag="h5"
            wrapTag="div"
>
            Request an invite
</ModalHeader>,
          <ModalBody
            tag="div"
>
            <Form
                        tag="form"
            >
                        <RenderField
                                    error={undefined}
                                    invalid={undefined}
                                    label="Full Name"
                                    onBlur={[Function]}
                                    onChange={[Function]}
                        />
                        <RenderField
                                    error={undefined}
                                    invalid={undefined}
                                    label="Email"
                                    onBlur={[Function]}
                                    onChange={[Function]}
                        />
                        <RenderField
                                    error={undefined}
                                    invalid={undefined}
                                    label="Confirm Email"
                                    onBlur={[Function]}
                                    onChange={[Function]}
                        />
            </Form>
</ModalBody>,
          <ModalFooter
            className="d-flex flex-column"
            tag="div"
>
            <Button
                        block={true}
                        color="primary"
                        disabled={false}
                        id="sendrequest"
                        onClick={[Function]}
                        size="lg"
                        tag="button"
            >
                        Send
            </Button>
            <Button
                        color="link"
                        id="cancelrequest"
                        onClick={[Function]}
                        tag="button"
            >
                        cancel
            </Button>
            <p
                        className="pt-1 h6 font-italic"
                        id="requestStatusText"
            />
</ModalFooter>,
        ],
        "className": undefined,
        "fade": true,
        "isOpen": false,
        "keyboard": true,
        "modalTransition": Object {
          "timeout": 300,
        },
        "onClosed": [Function],
        "onOpened": [Function],
        "role": "dialog",
        "size": "md",
        "toggle": undefined,
        "zIndex": 1050,
      },
      "ref": null,
      "rendered": Array [
        Object {
          "instance": null,
          "key": undefined,
          "nodeType": "function",
          "props": Object {
            "children": "Request an invite",
            "className": "modal-header",
            "closeAriaLabel": "Close",
            "tag": "h5",
            "wrapTag": "div",
          },
          "ref": null,
          "rendered": "Request an invite",
          "type": [Function],
        },
        Object {
          "instance": null,
          "key": undefined,
          "nodeType": "function",
          "props": Object {
            "children": <Form
              tag="form"
>
              <RenderField
                            error={undefined}
                            invalid={undefined}
                            label="Full Name"
                            onBlur={[Function]}
                            onChange={[Function]}
              />
              <RenderField
                            error={undefined}
                            invalid={undefined}
                            label="Email"
                            onBlur={[Function]}
                            onChange={[Function]}
              />
              <RenderField
                            error={undefined}
                            invalid={undefined}
                            label="Confirm Email"
                            onBlur={[Function]}
                            onChange={[Function]}
              />
</Form>,
            "tag": "div",
          },
          "ref": null,
          "rendered": Object {
            "instance": null,
            "key": undefined,
            "nodeType": "function",
            "props": Object {
              "children": Array [
                <RenderField
                  error={undefined}
                  invalid={undefined}
                  label="Full Name"
                  onBlur={[Function]}
                  onChange={[Function]}
/>,
                <RenderField
                  error={undefined}
                  invalid={undefined}
                  label="Email"
                  onBlur={[Function]}
                  onChange={[Function]}
/>,
                <RenderField
                  error={undefined}
                  invalid={undefined}
                  label="Confirm Email"
                  onBlur={[Function]}
                  onChange={[Function]}
/>,
              ],
              "tag": "form",
            },
            "ref": null,
            "rendered": Array [
              Object {
                "instance": null,
                "key": undefined,
                "nodeType": "function",
                "props": Object {
                  "error": undefined,
                  "invalid": undefined,
                  "label": "Full Name",
                  "onBlur": [Function],
                  "onChange": [Function],
                },
                "ref": null,
                "rendered": null,
                "type": [Function],
              },
              Object {
                "instance": null,
                "key": undefined,
                "nodeType": "function",
                "props": Object {
                  "error": undefined,
                  "invalid": undefined,
                  "label": "Email",
                  "onBlur": [Function],
                  "onChange": [Function],
                },
                "ref": null,
                "rendered": null,
                "type": [Function],
              },
              Object {
                "instance": null,
                "key": undefined,
                "nodeType": "function",
                "props": Object {
                  "error": undefined,
                  "invalid": undefined,
                  "label": "Confirm Email",
                  "onBlur": [Function],
                  "onChange": [Function],
                },
                "ref": null,
                "rendered": null,
                "type": [Function],
              },
            ],
            "type": [Function],
          },
          "type": [Function],
        },
        Object {
          "instance": null,
          "key": undefined,
          "nodeType": "function",
          "props": Object {
            "children": Array [
              <Button
                block={true}
                color="primary"
                disabled={false}
                id="sendrequest"
                onClick={[Function]}
                size="lg"
                tag="button"
>
                Send
</Button>,
              <Button
                color="link"
                id="cancelrequest"
                onClick={[Function]}
                tag="button"
>
                cancel
</Button>,
              <p
                className="pt-1 h6 font-italic"
                id="requestStatusText"
/>,
            ],
            "className": "d-flex flex-column",
            "tag": "div",
          },
          "ref": null,
          "rendered": Array [
            Object {
              "instance": null,
              "key": undefined,
              "nodeType": "class",
              "props": Object {
                "block": true,
                "children": "Send",
                "color": "primary",
                "disabled": false,
                "id": "sendrequest",
                "onClick": [Function],
                "size": "lg",
                "tag": "button",
              },
              "ref": null,
              "rendered": "Send",
              "type": [Function],
            },
            Object {
              "instance": null,
              "key": undefined,
              "nodeType": "class",
              "props": Object {
                "children": "cancel",
                "color": "link",
                "id": "cancelrequest",
                "onClick": [Function],
                "tag": "button",
              },
              "ref": null,
              "rendered": "cancel",
              "type": [Function],
            },
            Object {
              "instance": null,
              "key": undefined,
              "nodeType": "host",
              "props": Object {
                "children": "",
                "className": "pt-1 h6 font-italic",
                "id": "requestStatusText",
              },
              "ref": null,
              "rendered": "",
              "type": "p",
            },
          ],
          "type": [Function],
        },
      ],
      "type": [Function],
    },
  ],
  Symbol(enzyme.__options__): Object {
    "adapter": ReactSixteenAdapter {
      "options": Object {
        "enableComponentDidUpdateOnSetState": true,
      },
    },
  },
}
`;
